%YAML 1.1
%TAG !u! tag:unity3d.com,2011:
--- !u!74 &7400000
AnimationClip:
  m_ObjectHideFlags: 0
  m_CorrespondingSourceObject: {fileID: 0}
  m_PrefabInstance: {fileID: 0}
  m_PrefabAsset: {fileID: 0}
  m_Name: Character_1_Idle_Up
  serializedVersion: 6
  m_Legacy: 0
  m_Compressed: 0
  m_UseHighQualityCurve: 1
  m_RotationCurves: []
  m_CompressedRotationCurves: []
  m_EulerCurves: []
  m_PositionCurves: []
  m_ScaleCurves: []
  m_FloatCurves: []
  m_PPtrCurves:
  - curve:
    - time: 0
      value: {fileID: 4146644218284465603, guid: da0ccb4a814cc49f28e147fad0647abd,
        type: 3}
    - time: 0.1
      value: {fileID: -8444408537504895486, guid: da0ccb4a814cc49f28e147fad0647abd,
        type: 3}
    - time: 0.2
      value: {fileID: -563725793478230314, guid: da0ccb4a814cc49f28e147fad0647abd,
        type: 3}
    - time: 0.3
      value: {fileID: -3816090339792949994, guid: da0ccb4a814cc49f28e147fad0647abd,
        type: 3}
    - time: 0.4
      value: {fileID: 5722479002453138523, guid: da0ccb4a814cc49f28e147fad0647abd,
        type: 3}
    - time: 0.5
      value: {fileID: -1294077907210192609, guid: da0ccb4a814cc49f28e147fad0647abd,
        type: 3}
    - time: 0.6
      value: {fileID: -2961513630340279394, guid: da0ccb4a814cc49f28e147fad0647abd,
        type: 3}
    - time: 0.7
      value: {fileID: -4414166009381850331, guid: da0ccb4a814cc49f28e147fad0647abd,
        type: 3}
    - time: 0.8
      value: {fileID: 5205692239658374856, guid: da0ccb4a814cc49f28e147fad0647abd,
        type: 3}
    - time: 0.9
      value: {fileID: -1988590903630679230, guid: da0ccb4a814cc49f28e147fad0647abd,
        type: 3}
    - time: 1
      value: {fileID: -3915317378913982314, guid: da0ccb4a814cc49f28e147fad0647abd,
        type: 3}
    - time: 1.1
      value: {fileID: 5293624788419993974, guid: da0ccb4a814cc49f28e147fad0647abd,
        type: 3}
    - time: 1.2
      value: {fileID: -2342322586147006496, guid: da0ccb4a814cc49f28e147fad0647abd,
        type: 3}
    - time: 1.3166667
      value: {fileID: 493649065233288322, guid: da0ccb4a814cc49f28e147fad0647abd,
        type: 3}
    - time: 1.4
      value: {fileID: -2956865676486461146, guid: da0ccb4a814cc49f28e147fad0647abd,
        type: 3}
    - time: 1.5
      value: {fileID: 5100802339749973698, guid: da0ccb4a814cc49f28e147fad0647abd,
        type: 3}
    - time: 1.6
      value: {fileID: -5166661834591505341, guid: da0ccb4a814cc49f28e147fad0647abd,
        type: 3}
    - time: 1.7
      value: {fileID: 7910422784116573697, guid: da0ccb4a814cc49f28e147fad0647abd,
        type: 3}
    - time: 1.7833333
      value: {fileID: 826060479579778249, guid: da0ccb4a814cc49f28e147fad0647abd,
        type: 3}
    - time: 1.9
      value: {fileID: 2758563833737736763, guid: da0ccb4a814cc49f28e147fad0647abd,
        type: 3}
    - time: 2.0166667
      value: {fileID: -5823734764280958110, guid: da0ccb4a814cc49f28e147fad0647abd,
        type: 3}
    - time: 2.1
      value: {fileID: -3736316911914157454, guid: da0ccb4a814cc49f28e147fad0647abd,
        type: 3}
    - time: 2.2
      value: {fileID: 2892682364306596345, guid: da0ccb4a814cc49f28e147fad0647abd,
        type: 3}
    - time: 2.3
      value: {fileID: 2649835553757676764, guid: da0ccb4a814cc49f28e147fad0647abd,
        type: 3}
    attribute: m_Sprite
    path: 
    classID: 212
    script: {fileID: 0}
  m_SampleRate: 60
  m_WrapMode: 0
  m_Bounds:
    m_Center: {x: 0, y: 0, z: 0}
    m_Extent: {x: 0, y: 0, z: 0}
  m_ClipBindingConstant:
    genericBindings:
    - serializedVersion: 2
      path: 0
      attribute: 0
      script: {fileID: 0}
      typeID: 212
      customType: 23
      isPPtrCurve: 1
    pptrCurveMapping:
    - {fileID: 4146644218284465603, guid: da0ccb4a814cc49f28e147fad0647abd, type: 3}
    - {fileID: -8444408537504895486, guid: da0ccb4a814cc49f28e147fad0647abd, type: 3}
    - {fileID: -563725793478230314, guid: da0ccb4a814cc49f28e147fad0647abd, type: 3}
    - {fileID: -3816090339792949994, guid: da0ccb4a814cc49f28e147fad0647abd, type: 3}
    - {fileID: 5722479002453138523, guid: da0ccb4a814cc49f28e147fad0647abd, type: 3}
    - {fileID: -1294077907210192609, guid: da0ccb4a814cc49f28e147fad0647abd, type: 3}
    - {fileID: -2961513630340279394, guid: da0ccb4a814cc49f28e147fad0647abd, type: 3}
    - {fileID: -4414166009381850331, guid: da0ccb4a814cc49f28e147fad0647abd, type: 3}
    - {fileID: 5205692239658374856, guid: da0ccb4a814cc49f28e147fad0647abd, type: 3}
    - {fileID: -1988590903630679230, guid: da0ccb4a814cc49f28e147fad0647abd, type: 3}
    - {fileID: -3915317378913982314, guid: da0ccb4a814cc49f28e147fad0647abd, type: 3}
    - {fileID: 5293624788419993974, guid: da0ccb4a814cc49f28e147fad0647abd, type: 3}
    - {fileID: -2342322586147006496, guid: da0ccb4a814cc49f28e147fad0647abd, type: 3}
    - {fileID: 493649065233288322, guid: da0ccb4a814cc49f28e147fad0647abd, type: 3}
    - {fileID: -2956865676486461146, guid: da0ccb4a814cc49f28e147fad0647abd, type: 3}
    - {fileID: 5100802339749973698, guid: da0ccb4a814cc49f28e147fad0647abd, type: 3}
    - {fileID: -5166661834591505341, guid: da0ccb4a814cc49f28e147fad0647abd, type: 3}
    - {fileID: 7910422784116573697, guid: da0ccb4a814cc49f28e147fad0647abd, type: 3}
    - {fileID: 826060479579778249, guid: da0ccb4a814cc49f28e147fad0647abd, type: 3}
    - {fileID: 2758563833737736763, guid: da0ccb4a814cc49f28e147fad0647abd, type: 3}
    - {fileID: -5823734764280958110, guid: da0ccb4a814cc49f28e147fad0647abd, type: 3}
    - {fileID: -3736316911914157454, guid: da0ccb4a814cc49f28e147fad0647abd, type: 3}
    - {fileID: 2892682364306596345, guid: da0ccb4a814cc49f28e147fad0647abd, type: 3}
    - {fileID: 2649835553757676764, guid: da0ccb4a814cc49f28e147fad0647abd, type: 3}
  m_AnimationClipSettings:
    serializedVersion: 2
    m_AdditiveReferencePoseClip: {fileID: 0}
    m_AdditiveReferencePoseTime: 0
    m_StartTime: 0
    m_StopTime: 2.3166666
    m_OrientationOffsetY: 0
    m_Level: 0
    m_CycleOffset: 0
    m_HasAdditiveReferencePose: 0
    m_LoopTime: 1
    m_LoopBlend: 0
    m_LoopBlendOrientation: 0
    m_LoopBlendPositionY: 0
    m_LoopBlendPositionXZ: 0
    m_KeepOriginalOrientation: 0
    m_KeepOriginalPositionY: 1
    m_KeepOriginalPositionXZ: 0
    m_HeightFromFeet: 0
    m_Mirror: 0
  m_EditorCurves: []
  m_EulerEditorCurves: []
  m_HasGenericRootTransform: 0
  m_HasMotionFloatCurves: 0
  m_Events: []
